{
    "data": {
        "list": [{
                 "id": 123,
                 "title": "[!]农村宅基地可以出售了!震惊,大家纷纷表示希望迁回农村",
                 "manufacturer": {
                 "id": 123,
                 "level": "CHARGING",
                 "full_name": "新农村(old)",
                 "short_name": "app",
                 "certify_status": "PASSED"
                 },
                 "summary": "最新apple生产了iPhoneX,市场反响还不错",
                 "entity_type": "MANUFACTURER_NEWS",
                 "view_count": 120,
                 "comment_count": 0,
                 "publish_time": "2018-03-29T22:54:02.000+08:00",
                 "pic_url": "http://mpic.tiankong.com/14c/4ab/14c4ab7c596c258adc5649f4ac1c7ab7/640.jpg@360h",
                 "thumb_url": "http://mpic.tiankong.com/14c/4ab/14c4ab7c596c258adc5649f4ac1c7ab7/640.jpg@360h",
                 "content_thumbs": [
                                    "http://mpic.tiankong.com/14c/4ab/14c4ab7c596c258adc5649f4ac1c7ab7/640.jpg@360h"
                                    ]
                 },
                 {
                 "id": 123,
                 "title": "农业领域受到国家支持,提倡新农场",
                 "manufacturer": {
                 "id": 123,
                 "level": "CHARGING",
                 "full_name": "农业支持",
                 "short_name": "app",
                 "certify_status": "PASSED"
                 },
                 "summary": "最新apple生产了iPhoneX,市场反响还不错",
                 "entity_type": "MANUFACTURER_NEWS",
                 "view_count": 120,
                 "comment_count": 0,
                 "publish_time": "2018-03-29T22:54:02.000+08:00",
                 "pic_url": "http://mpic.tiankong.com/cad/ab8/cadab8a1d38cdca4c30f77a420f90105/640.jpg@360h",
                 "thumb_url": "http://mpic.tiankong.com/cad/ab8/cadab8a1d38cdca4c30f77a420f90105/640.jpg@360h",
                 "content_thumbs": [
                                    "http://mpic.tiankong.com/cad/ab8/cadab8a1d38cdca4c30f77a420f90105/640.jpg@360h",
                                    "http://mpic.tiankong.com/253/2f9/2532f94844beb751abc8099801a81964/640.jpg@360h",
                                    "http://mpic.tiankong.com/253/2f9/2532f94844beb751abc8099801a81964/640.jpg@360h"
                                    ]
                 },
                 {
                 "id": 123,
                 "title": "大量农民进城务工,农村多了很多留守老人和儿童",
                 "manufacturer": {
                 "id": 123,
                 "level": "CHARGING",
                 "full_name": "农民生活",
                 "short_name": "app",
                 "certify_status": "PASSED"
                 },
                 "summary": "最新apple生产了iPhoneX,市场反响还不错",
                 "entity_type": "MANUFACTURER_NEWS",
                 "view_count": 120,
                 "comment_count": 0,
                 "publish_time": "2018-03-29T22:54:02.000+08:00",
                 "pic_url": "http://mpic.tiankong.com/906/fb1/906fb122e1894b31c9249e6e1d5bb62f/640.jpg@360h",
                 "thumb_url": "http://mpic.tiankong.com/906/fb1/906fb122e1894b31c9249e6e1d5bb62f/640.jpg@360h",
                 "content_thumbs": [
                                    ]
                 },
                 {
                 "id": 123,
                 "title": "新农村拟建立微信公众号,方便发布消息",
                 "manufacturer": {
                 "id": 123,
                 "level": "CHARGING",
                 "full_name": "微信生活",
                 "short_name": "app",
                 "certify_status": "PASSED"
                 },
                 "summary": "最新apple生产了iPhoneX,市场反响还不错",
                 "entity_type": "MANUFACTURER_NEWS",
                 "view_count": 120,
                 "comment_count": 0,
                 "publish_time": "2018-03-29T22:54:02.000+08:00",
                 "pic_url": "http://mpic.tiankong.com/926/25e/92625edb324d2ebea0a99967881b9996/640.jpg@360h",
                 "thumb_url": "http://mpic.tiankong.com/926/25e/92625edb324d2ebea0a99967881b9996/640.jpg@360h",
                 "content_thumbs": [
                                    "http://mpic.tiankong.com/6b4/d04/6b4d04ad930f7d1b3b3d275ffdad53c0/640.jpg@360h"
                                    ]
                 },
                 {
                 "id": 123,
                 "title": "农村的新生活",
                 "manufacturer": {
                 "id": 123,
                 "level": "CHARGING",
                 "full_name": "新生活资讯",
                 "short_name": "新生活资讯",
                 "certify_status": "PASSED"
                 },
                 "summary": "最新apple生产了iPhoneX,市场反响还不错",
                 "entity_type": "MANUFACTURER_NEWS",
                 "view_count": 120,
                 "comment_count": 0,
                 "publish_time": "2018-03-29T22:54:02.000+08:00",
                 "pic_url": "http://mpic.tiankong.com/fcf/789/fcf789b64e41e959ee9b981d204a821c/640.jpg@360h",
                 "thumb_url": "http://mpic.tiankong.com/fcf/789/fcf789b64e41e959ee9b981d204a821c/640.jpg@360h",
                 "content_thumbs": [
                                    "http://mpic.tiankong.com/fcf/789/fcf789b64e41e959ee9b981d204a821c/640.jpg@360h",
                                    "http://mpic.tiankong.com/268/7cb/2687cb586b59b0e306d7a881db27af93/640.jpg@360h",
                                    "http://mpic.tiankong.com/257/eac/257eac197ee859a10f6fa8884c40b282/640.jpg@360h"
                                    ]
                 },
                 {
                 "id": 123,
                 "title": "农业也有春天??",
                 "manufacturer": {
                 "id": 123,
                 "level": "CHARGING",
                 "full_name": "新农村",
                 "short_name": "app",
                 "certify_status": "PASSED"
                 },
                 "summary": "最新apple生产了iPhoneX,市场反响还不错",
                 "entity_type": "MANUFACTURER_NEWS",
                 "view_count": 120,
                 "comment_count": 0,
                 "publish_time": "2018-03-29T22:54:02.000+08:00",
                 "pic_url": "http://mpic.tiankong.com/65a/b9b/65ab9bd371ea58c2f373497668e28e6e/640.jpg@360h",
                 "thumb_url": "http://mpic.tiankong.com/65a/b9b/65ab9bd371ea58c2f373497668e28e6e/640.jpg@360h",
                 "content_thumbs": [
                                    "http://mpic.tiankong.com/65a/b9b/65ab9bd371ea58c2f373497668e28e6e/640.jpg@360h"
                                    ]
                 },
                 {
                 "id": 123,
                 "title": "最近农村广场舞挺火",
                 "manufacturer": {
                 "id": 123,
                 "level": "CHARGING",
                 "full_name": "新生活",
                 "short_name": "app",
                 "certify_status": "PASSED"
                 },
                 "summary": "最新apple生产了iPhoneX,市场反响还不错",
                 "entity_type": "MANUFACTURER_NEWS",
                 "view_count": 120,
                 "comment_count": 0,
                 "publish_time": "2018-03-29T22:54:02.000+08:00",
                 "pic_url": "http://mpic.tiankong.com/9d5/f42/9d5f42359144e34aebed88bd43fc9ae8/640.jpg@360h",
                 "thumb_url": "http://mpic.tiankong.com/9d5/f42/9d5f42359144e34aebed88bd43fc9ae8/640.jpg@360h",
                 "content_thumbs": [
                                    "http://mpic.tiankong.com/9d5/f42/9d5f42359144e34aebed88bd43fc9ae8/640.jpg@360h"
                                    ]
                 },
                 {
                 "id": 123,
                 "title": "农民的烦恼--生活改善,思念之心如何改善",
                 "manufacturer": {
                 "id": 123,
                 "level": "CHARGING",
                 "full_name": "aApple",
                 "short_name": "app",
                 "certify_status": "PASSED"
                 },
                 "summary": "最新apple生产了iPhoneX,市场反响还不错",
                 "entity_type": "MANUFACTURER_NEWS",
                 "view_count": 120,
                 "comment_count": 0,
                 "publish_time": "2018-03-29T22:54:02.000+08:00",
                 "pic_url": "http://mpic.tiankong.com/2bc/c35/2bcc3551db94ae8a434014b4b7cf16c7/640.jpg@360h",
                 "thumb_url": "http://mpic.tiankong.com/2bc/c35/2bcc3551db94ae8a434014b4b7cf16c7/640.jpg@360h",
                 "content_thumbs": [
                                    "http://mpic.tiankong.com/4ea/374/4ea374fb6664135947c4b65eb554e1a4/640.jpg@360h"
                                    ]
                 }
                 ],
        "current_page": 1,
        "page_size": 8,
        "total_rows": 1878,
        "total_page": 94,
        "has_previous_page": false,
        "has_next_page": true
    }
}
